<svg width="20" height="18" viewBox="0 0 20 18" version="1.1" xmlns="http://www.w3.org/2000/svg" xmlns:xlink="http://www.w3.org/1999/xlink">
<title>Group</title>
<desc>Created using Figma</desc>
<g id="Canvas" transform="translate(-14093 -45)">
<g id="Group">
<g id="Page 1">
<g id="Shopping and Financial">
<g id="Shopping Cart">
<g id="Stroke 590">
<use xlink:href="#path0_stroke" transform="translate(14097.2 48.4829)" fill="#FFFFFF"/>
</g>
<g id="Stroke 591">
<use xlink:href="#path1_stroke" transform="translate(14094 46)" fill="#FFFFFF"/>
</g>
<g id="Stroke 592">
<use xlink:href="#path2_stroke" transform="translate(14101.5 59.7928)" fill="#FFFFFF"/>
</g>
<g id="Stroke 593">
<use xlink:href="#path3_stroke" transform="translate(14106.9 59.7928)" fill="#FFFFFF"/>
</g>
</g>
</g>
</g>
</g>
</g>
<defs>
<path id="path0_stroke" d="M 13.1357 5.73575L 12.6584 5.58682C 12.6507 5.61148 12.6449 5.63669 12.6411 5.66223L 13.1357 5.73575ZM 14.7531 0.552171L 15.2304 0.701102C 15.2454 0.652889 15.2531 0.602676 15.2531 0.552171L 14.7531 0.552171ZM 2.49304 7.67218L 11.3045 7.67218L 11.3045 6.67218L 2.49304 6.67218L 2.49304 7.67218ZM 11.3045 7.67218C 12.4362 7.67218 13.4657 6.91608 13.6303 5.80927L 12.6411 5.66223C 12.5612 6.20021 12.0247 6.67218 11.3045 6.67218L 11.3045 7.67218ZM 13.613 5.88468L 15.2304 0.701102L 14.2758 0.403241L 12.6584 5.58682L 13.613 5.88468ZM 15.2531 0.552171C 15.2531 -0.079485 14.6999 -0.5 14.1366 -0.5L 14.1366 0.5C 14.186 0.5 14.2208 0.517866 14.239 0.534159C 14.2478 0.542076 14.2514 0.548308 14.2525 0.550688C 14.2531 0.551857 14.2532 0.552336 14.2531 0.552199C 14.2531 0.552011 14.2531 0.551899 14.2531 0.552171L 15.2531 0.552171ZM 14.1366 -0.5L 3.54772e-08 -0.5L 3.54772e-08 0.5L 14.1366 0.5L 14.1366 -0.5Z"/>
<path id="path1_stroke" d="M 16.1777 12.6378C 16.4539 12.6378 16.6777 12.414 16.6777 12.1378C 16.6777 11.8617 16.4539 11.6378 16.1777 11.6378L 16.1777 12.6378ZM 6.55885 12.0095L 7.04393 11.8882C 7.04031 11.8737 7.03604 11.8594 7.03113 11.8453L 6.55885 12.0095ZM 2.42891 0.128354L 1.94383 0.249591C 1.94746 0.264085 1.95173 0.27841 1.95663 0.292521L 2.42891 0.128354ZM -4.07702e-09 -0.5C -0.276142 -0.5 -0.5 -0.276142 -0.5 -1.06492e-10C -0.5 0.276142 -0.276142 0.5 -4.07702e-09 0.5L -4.07702e-09 -0.5ZM 16.1777 11.6378L 6.73398 11.6378L 6.73398 12.6378L 16.1777 12.6378L 16.1777 11.6378ZM 6.73398 11.6378C 6.85356 11.6378 7.00093 11.7162 7.04393 11.8882L 6.07377 12.1307C 6.15427 12.4528 6.44714 12.6378 6.73398 12.6378L 6.73398 11.6378ZM 7.03113 11.8453L 2.90119 -0.0358134L 1.95663 0.292521L 6.08657 12.1736L 7.03113 11.8453ZM 2.91399 0.00711697C 2.83349 -0.314983 2.54062 -0.5 2.25378 -0.5L 2.25378 0.5C 2.1342 0.5 1.98684 0.421649 1.94383 0.249591L 2.91399 0.00711697ZM 2.25378 -0.5L -4.07702e-09 -0.5L -4.07702e-09 0.5L 2.25378 0.5L 2.25378 -0.5Z"/>
<path id="path2_stroke" d="M 1.89666 1.10363C 1.89666 1.3989 1.62349 1.70726 1.19814 1.70726L 1.19814 2.70726C 2.09657 2.70726 2.89666 2.0272 2.89666 1.10363L 1.89666 1.10363ZM 1.19814 1.70726C 0.773276 1.70726 0.5 1.39899 0.5 1.10363L -0.5 1.10363C -0.5 2.0271 0.29999 2.70726 1.19814 2.70726L 1.19814 1.70726ZM 0.5 1.10363C 0.5 0.808269 0.773276 0.5 1.19814 0.5L 1.19814 -0.5C 0.29999 -0.5 -0.5 0.180164 -0.5 1.10363L 0.5 1.10363ZM 1.19814 0.5C 1.62349 0.5 1.89666 0.808366 1.89666 1.10363L 2.89666 1.10363C 2.89666 0.180067 2.09657 -0.5 1.19814 -0.5L 1.19814 0.5Z"/>
<path id="path3_stroke" d="M 1.89666 1.10363C 1.89666 1.3989 1.62349 1.70726 1.19814 1.70726L 1.19814 2.70726C 2.09656 2.70726 2.89666 2.0272 2.89666 1.10363L 1.89666 1.10363ZM 1.19814 1.70726C 0.773275 1.70726 0.5 1.39899 0.5 1.10363L -0.5 1.10363C -0.5 2.0271 0.29999 2.70726 1.19814 2.70726L 1.19814 1.70726ZM 0.5 1.10363C 0.5 0.808269 0.773275 0.5 1.19814 0.5L 1.19814 -0.5C 0.29999 -0.5 -0.5 0.180164 -0.5 1.10363L 0.5 1.10363ZM 1.19814 0.5C 1.62349 0.5 1.89666 0.808366 1.89666 1.10363L 2.89666 1.10363C 2.89666 0.180066 2.09656 -0.5 1.19814 -0.5L 1.19814 0.5Z"/>
</defs>
</svg>
